…
Pivot tables and format Date column:

``` r
pupae <- pivot_no_sex(pupae)
pupa_sex <- pupa_sex %>% 
  rename(Date = `Date of Eclosion`) %>%
  pivot_sex()
(adult_sex <- adult_sex %>%
  rename(Date = `Date of Death`) %>%
  pivot_sex())
```

    ## # A tibble: 614 × 5
    ##    Date       Population Treatment Sex    Count
    ##    <date>     <chr>      <chr>     <chr>  <dbl>
    ##  1 2020-01-03 ML         2         male       1
    ##  2 2020-01-05 ML         1         male       1
    ##  3 2020-01-05 ML         2         male       1
    ##  4 2020-01-07 ML         1         male       1
    ##  5 2020-01-07 ML         1         female     1
    ##  6 2020-01-08 KC         1         male       1
    ##  7 2020-01-08 ML         1         male       2
    ##  8 2020-01-08 ML         2         male       2
    ##  9 2020-01-10 ML         1         male       8
    ## 10 2020-01-10 ML         2         male       3
    ## # … with 604 more rows
…
``` r
(pupa_sex_sum <- pupa_sex %>%
  group_by(Population, Treatment, Sex) %>%
  summarise(total_eclosed = sum(Count), 
            mean_eclosion_date = weighted.mean(Date, Count/total_eclosed)) %>%
   ungroup())
```

    ## `summarise()` has grouped output by 'Population', 'Treatment'. You can override using the `.groups` argument.

    ## # A tibble: 22 × 5
    ##    Population Treatment Sex    total_eclosed mean_eclosion_date
    ##    <chr>      <chr>     <chr>          <dbl> <date>            
    ##  1 KC         0         female           117 2020-01-27        
    ##  2 KC         0         male              97 2020-01-23        
    ##  3 KC         1         female           115 2020-01-26        
    ##  4 KC         1         male             104 2020-01-22        
    ##  5 KC         2         female           114 2020-01-28        
    ##  6 KC         2         male              93 2020-01-21        
    ##  7 LI         0         female            98 2020-01-30        
    ##  8 LI         0         male             146 2020-01-25        
    ##  9 LI         1         female            93 2020-01-29        
    ## 10 LI         1         male             147 2020-01-26        
    ## # … with 12 more rows

``` r
(adult_sex_sum <- adult_sex %>%
  group_by(Population, Treatment, Sex) %>%
  summarise(total_dead = sum(Count), 
            mean_death_date = weighted.mean(Date, Count/total_dead)) %>%
   ungroup())
```

    ## `summarise()` has grouped output by 'Population', 'Treatment'. You can override using the `.groups` argument.

    ## # A tibble: 22 × 5
    ##    Population Treatment Sex    total_dead mean_death_date
    ##    <chr>      <chr>     <chr>       <dbl> <date>         
    ##  1 KC         0         female        115 2020-02-08     
    ##  2 KC         0         male           91 2020-02-04     
    ##  3 KC         1         female        115 2020-02-06     
    ##  4 KC         1         male          104 2020-02-03     
    ##  5 KC         2         female        114 2020-02-09     
    ##  6 KC         2         male           92 2020-02-01     
    ##  7 LI         0         female         90 2020-02-13     
    ##  8 LI         0         male          115 2020-02-06     
    ##  9 LI         1         female         92 2020-02-11     
    ## 10 LI         1         male          130 2020-02-05     
    ## # … with 12 more rows
…
